<svg width="453" height="175" viewBox="0 0 453 175" fill="none" xmlns="http://www.w3.org/2000/svg">
<path d="M39 41.001V2.4356L1 40.9111V41.001H39Z" stroke="#515257" stroke-width="2"/>
<path d="M32 41.001V18.9508L10.3997 41.001H32Z" stroke="#515257" stroke-width="2"/>
<path d="M452 136.586V2.4356L414 40.9111V173.001V174.001H414.586L452 136.586Z" stroke="#515257" stroke-width="2"/>
<path d="M445 134.087V18.9481L421 43.4095V158.087L445 134.087Z" stroke="#515257" stroke-width="2"/>
<line y1="-0.5" x2="17" y2="-0.5" transform="matrix(-0.707107 -0.707107 -0.707107 0.707107 438.636 94.3857)" stroke="#30C2FF"/>
<line y1="-0.5" x2="17" y2="-0.5" transform="matrix(-0.707107 0.707107 0.707107 0.707107 439.343 82.3643)" stroke="#30C2FF"/>
<path d="M1 41.4142L1.41421 41H60V174H1V41.4142Z" stroke="#515257" stroke-width="2"/>
<rect x="8" y="48" width="45" height="119" stroke="#515257" stroke-width="2"/>
<path d="M8 48L52 106.954L8 167" stroke="#30C2FF"/>
<rect x="60" y="41" width="59" height="133" stroke="#515257" stroke-width="2"/>
<rect x="67" y="48" width="45" height="119" stroke="#515257" stroke-width="2"/>
<path d="M112 48L68 106.954L112 167" stroke="#30C2FF"/>
<rect x="119" y="41" width="59" height="133" stroke="#515257" stroke-width="2"/>
<rect x="126" y="48" width="45" height="119" stroke="#515257" stroke-width="2"/>
<line x1="143.01" y1="113.031" x2="155.031" y2="101.01" stroke="#30C2FF"/>
<line x1="143.01" y1="101.01" x2="155.031" y2="113.031" stroke="#30C2FF"/>
<rect x="178" y="41" width="59" height="133" stroke="#515257" stroke-width="2"/>
<rect x="185" y="48" width="45" height="119" stroke="#515257" stroke-width="2"/>
<path d="M185 48L229 106.954L185 167" stroke="#30C2FF"/>
<rect x="237" y="41" width="59" height="133" stroke="#515257" stroke-width="2"/>
<rect x="244" y="48" width="45" height="119" stroke="#515257" stroke-width="2"/>
<line x1="261.01" y1="113.031" x2="273.031" y2="101.01" stroke="#30C2FF"/>
<line x1="261.01" y1="101.01" x2="273.031" y2="113.031" stroke="#30C2FF"/>
<rect x="296" y="41" width="59" height="133" stroke="#515257" stroke-width="2"/>
<rect x="303" y="48" width="45" height="119" stroke="#515257" stroke-width="2"/>
<path d="M303 48L347 106.954L303 167" stroke="#30C2FF"/>
<rect x="355" y="41" width="59" height="133" stroke="#515257" stroke-width="2"/>
<rect x="362" y="48" width="45" height="119" stroke="#515257" stroke-width="2"/>
<path d="M407 48L363 106.954L407 167" stroke="#30C2FF"/>
</svg>
