<svg width="112" height="112" viewBox="0 0 112 112" fill="none" xmlns="http://www.w3.org/2000/svg">
<path d="M55.9999 0C25.0724 0 0 25.0724 0 55.9999C0 86.9273 25.0724 112 55.9999 112C86.9273 112 112 86.9273 112 55.9999C112 25.0724 86.9276 0 55.9999 0ZM86.8861 72.6308L72.6319 86.8861L55.9999 70.2552L39.3679 86.8872L25.1136 72.6308L41.7445 55.9999L25.1136 39.3679L39.3679 25.1136L55.9999 41.7445L72.6319 25.1136L86.8861 39.3679L70.2552 55.9999L86.8861 72.6308Z" fill="#F05228"/>
</svg>
