<svg width="46" height="67" viewBox="0 0 46 67" fill="none" xmlns="http://www.w3.org/2000/svg">
    <rect x="-0.5" y="0.5" width="45" height="66" transform="matrix(-1 0 0 1 45 0)" stroke="#515257"/>
    <rect x="-0.5" y="0.5" width="37" height="58" transform="matrix(-1 0 0 1 41 4)" stroke="#515257"/>
    <path d="M5 5L41 33.2L5 62" stroke="#30C2FF"/>
    <path d="M5 62L22.8105 5L41 62" stroke="#30C2FF"/>
</svg>
