<svg width="24" height="38" viewBox="0 0 24 38" fill="none" xmlns="http://www.w3.org/2000/svg">
<rect x="-0.5" y="0.5" width="23" height="37" transform="matrix(-1 0 0 1 23 0)" stroke="#515257"/>
<rect x="-0.5" y="0.5" width="17" height="31" transform="matrix(-1 0 0 1 20 3)" stroke="#515257"/>
<path d="M4 34L11.9158 4L20 34" stroke="#30C2FF"/>
</svg>
