<svg width="6" height="10" viewBox="0 0 6 10" fill="none" xmlns="http://www.w3.org/2000/svg">
<path d="M5.5575 1.5575L4.5 0.5L0 5L4.5 9.5L5.5575 8.4425L2.1225 5L5.5575 1.5575Z" fill="#393E46"/>
</svg>
