<svg width="78" height="118" viewBox="0 0 78 118" fill="none" xmlns="http://www.w3.org/2000/svg">
<rect x="1" y="1" width="76" height="116" stroke="#515257" stroke-width="2"/>
<rect x="5" y="5" width="68" height="108" stroke="#515257" stroke-width="2"/>
<rect x="8" y="6" width="2" height="2" fill="#C4C4C4"/>
<rect x="12" y="6" width="2" height="2" fill="#C4C4C4"/>
<rect x="16" y="6" width="2" height="2" fill="#C4C4C4"/>
<rect x="20" y="6" width="2" height="2" fill="#C4C4C4"/>
<rect x="40" y="6" width="2" height="2" fill="#C4C4C4"/>
<rect x="44" y="6" width="2" height="2" fill="#C4C4C4"/>
<rect x="48" y="6" width="2" height="2" fill="#C4C4C4"/>
<rect x="52" y="6" width="2" height="2" fill="#C4C4C4"/>
<rect x="56" y="6" width="2" height="2" fill="#C4C4C4"/>
<rect x="60" y="6" width="2" height="2" fill="#C4C4C4"/>
<rect x="64" y="6" width="2" height="2" fill="#C4C4C4"/>
<rect x="68" y="6" width="2" height="2" fill="#C4C4C4"/>
<rect x="24" y="6" width="2" height="2" fill="#C4C4C4"/>
<rect x="28" y="6" width="2" height="2" fill="#C4C4C4"/>
<rect x="32" y="6" width="2" height="2" fill="#C4C4C4"/>
<rect x="36" y="6" width="2" height="2" fill="#C4C4C4"/>
<rect x="6" y="8" width="2" height="2" fill="#C4C4C4"/>
<rect x="8" y="10" width="2" height="2" fill="#C4C4C4"/>
<rect x="10" y="8" width="2" height="2" fill="#C4C4C4"/>
<rect x="12" y="10" width="2" height="2" fill="#C4C4C4"/>
<rect x="14" y="8" width="2" height="2" fill="#C4C4C4"/>
<rect x="16" y="10" width="2" height="2" fill="#C4C4C4"/>
<rect x="18" y="8" width="2" height="2" fill="#C4C4C4"/>
<rect x="20" y="10" width="2" height="2" fill="#C4C4C4"/>
<rect x="22" y="8" width="2" height="2" fill="#C4C4C4"/>
<rect x="38" y="8" width="2" height="2" fill="#C4C4C4"/>
<rect x="40" y="10" width="2" height="2" fill="#C4C4C4"/>
<rect x="42" y="8" width="2" height="2" fill="#C4C4C4"/>
<rect x="44" y="10" width="2" height="2" fill="#C4C4C4"/>
<rect x="46" y="8" width="2" height="2" fill="#C4C4C4"/>
<rect x="48" y="10" width="2" height="2" fill="#C4C4C4"/>
<rect x="50" y="8" width="2" height="2" fill="#C4C4C4"/>
<rect x="52" y="10" width="2" height="2" fill="#C4C4C4"/>
<rect x="54" y="8" width="2" height="2" fill="#C4C4C4"/>
<rect x="56" y="10" width="2" height="2" fill="#C4C4C4"/>
<rect x="58" y="8" width="2" height="2" fill="#C4C4C4"/>
<rect x="60" y="10" width="2" height="2" fill="#C4C4C4"/>
<rect x="62" y="8" width="2" height="2" fill="#C4C4C4"/>
<rect x="64" y="10" width="2" height="2" fill="#C4C4C4"/>
<rect x="66" y="8" width="2" height="2" fill="#C4C4C4"/>
<rect x="68" y="10" width="2" height="2" fill="#C4C4C4"/>
<rect x="70" y="8" width="2" height="2" fill="#C4C4C4"/>
<rect x="24" y="10" width="2" height="2" fill="#C4C4C4"/>
<rect x="26" y="8" width="2" height="2" fill="#C4C4C4"/>
<rect x="28" y="10" width="2" height="2" fill="#C4C4C4"/>
<rect x="30" y="8" width="2" height="2" fill="#C4C4C4"/>
<rect x="32" y="10" width="2" height="2" fill="#C4C4C4"/>
<rect x="34" y="8" width="2" height="2" fill="#C4C4C4"/>
<rect x="36" y="10" width="2" height="2" fill="#C4C4C4"/>
<rect x="6" y="12" width="2" height="2" fill="#C4C4C4"/>
<rect x="8" y="14" width="2" height="2" fill="#C4C4C4"/>
<rect x="10" y="12" width="2" height="2" fill="#C4C4C4"/>
<rect x="12" y="14" width="2" height="2" fill="#C4C4C4"/>
<rect x="14" y="12" width="2" height="2" fill="#C4C4C4"/>
<rect x="16" y="14" width="2" height="2" fill="#C4C4C4"/>
<rect x="18" y="12" width="2" height="2" fill="#C4C4C4"/>
<rect x="20" y="14" width="2" height="2" fill="#C4C4C4"/>
<rect x="22" y="12" width="2" height="2" fill="#C4C4C4"/>
<rect x="38" y="12" width="2" height="2" fill="#C4C4C4"/>
<rect x="40" y="14" width="2" height="2" fill="#C4C4C4"/>
<rect x="42" y="12" width="2" height="2" fill="#C4C4C4"/>
<rect x="44" y="14" width="2" height="2" fill="#C4C4C4"/>
<rect x="46" y="12" width="2" height="2" fill="#C4C4C4"/>
<rect x="48" y="14" width="2" height="2" fill="#C4C4C4"/>
<rect x="50" y="12" width="2" height="2" fill="#C4C4C4"/>
<rect x="52" y="14" width="2" height="2" fill="#C4C4C4"/>
<rect x="54" y="12" width="2" height="2" fill="#C4C4C4"/>
<rect x="56" y="14" width="2" height="2" fill="#C4C4C4"/>
<rect x="58" y="12" width="2" height="2" fill="#C4C4C4"/>
<rect x="60" y="14" width="2" height="2" fill="#C4C4C4"/>
<rect x="62" y="12" width="2" height="2" fill="#C4C4C4"/>
<rect x="64" y="14" width="2" height="2" fill="#C4C4C4"/>
<rect x="66" y="12" width="2" height="2" fill="#C4C4C4"/>
<rect x="68" y="14" width="2" height="2" fill="#C4C4C4"/>
<rect x="70" y="12" width="2" height="2" fill="#C4C4C4"/>
<rect x="24" y="14" width="2" height="2" fill="#C4C4C4"/>
<rect x="26" y="12" width="2" height="2" fill="#C4C4C4"/>
<rect x="28" y="14" width="2" height="2" fill="#C4C4C4"/>
<rect x="30" y="12" width="2" height="2" fill="#C4C4C4"/>
<rect x="32" y="14" width="2" height="2" fill="#C4C4C4"/>
<rect x="34" y="12" width="2" height="2" fill="#C4C4C4"/>
<rect x="36" y="14" width="2" height="2" fill="#C4C4C4"/>
<rect x="6" y="16" width="2" height="2" fill="#C4C4C4"/>
<rect x="8" y="18" width="2" height="2" fill="#C4C4C4"/>
<rect x="10" y="16" width="2" height="2" fill="#C4C4C4"/>
<rect x="12" y="18" width="2" height="2" fill="#C4C4C4"/>
<rect x="14" y="16" width="2" height="2" fill="#C4C4C4"/>
<rect x="16" y="18" width="2" height="2" fill="#C4C4C4"/>
<rect x="18" y="16" width="2" height="2" fill="#C4C4C4"/>
<rect x="20" y="18" width="2" height="2" fill="#C4C4C4"/>
<rect x="22" y="16" width="2" height="2" fill="#C4C4C4"/>
<rect x="38" y="16" width="2" height="2" fill="#C4C4C4"/>
<rect x="40" y="18" width="2" height="2" fill="#C4C4C4"/>
<rect x="42" y="16" width="2" height="2" fill="#C4C4C4"/>
<rect x="44" y="18" width="2" height="2" fill="#C4C4C4"/>
<rect x="46" y="16" width="2" height="2" fill="#C4C4C4"/>
<rect x="48" y="18" width="2" height="2" fill="#C4C4C4"/>
<rect x="50" y="16" width="2" height="2" fill="#C4C4C4"/>
<rect x="52" y="18" width="2" height="2" fill="#C4C4C4"/>
<rect x="54" y="16" width="2" height="2" fill="#C4C4C4"/>
<rect x="56" y="18" width="2" height="2" fill="#C4C4C4"/>
<rect x="58" y="16" width="2" height="2" fill="#C4C4C4"/>
<rect x="60" y="18" width="2" height="2" fill="#C4C4C4"/>
<rect x="62" y="16" width="2" height="2" fill="#C4C4C4"/>
<rect x="64" y="18" width="2" height="2" fill="#C4C4C4"/>
<rect x="66" y="16" width="2" height="2" fill="#C4C4C4"/>
<rect x="68" y="18" width="2" height="2" fill="#C4C4C4"/>
<rect x="70" y="16" width="2" height="2" fill="#C4C4C4"/>
<rect x="24" y="18" width="2" height="2" fill="#C4C4C4"/>
<rect x="26" y="16" width="2" height="2" fill="#C4C4C4"/>
<rect x="28" y="18" width="2" height="2" fill="#C4C4C4"/>
<rect x="30" y="16" width="2" height="2" fill="#C4C4C4"/>
<rect x="32" y="18" width="2" height="2" fill="#C4C4C4"/>
<rect x="34" y="16" width="2" height="2" fill="#C4C4C4"/>
<rect x="36" y="18" width="2" height="2" fill="#C4C4C4"/>
<rect x="6" y="20" width="2" height="2" fill="#C4C4C4"/>
<rect x="8" y="22" width="2" height="2" fill="#C4C4C4"/>
<rect x="10" y="20" width="2" height="2" fill="#C4C4C4"/>
<rect x="12" y="22" width="2" height="2" fill="#C4C4C4"/>
<rect x="14" y="20" width="2" height="2" fill="#C4C4C4"/>
<rect x="16" y="22" width="2" height="2" fill="#C4C4C4"/>
<rect x="18" y="20" width="2" height="2" fill="#C4C4C4"/>
<rect x="20" y="22" width="2" height="2" fill="#C4C4C4"/>
<rect x="22" y="20" width="2" height="2" fill="#C4C4C4"/>
<rect x="38" y="20" width="2" height="2" fill="#C4C4C4"/>
<rect x="40" y="22" width="2" height="2" fill="#C4C4C4"/>
<rect x="42" y="20" width="2" height="2" fill="#C4C4C4"/>
<rect x="44" y="22" width="2" height="2" fill="#C4C4C4"/>
<rect x="46" y="20" width="2" height="2" fill="#C4C4C4"/>
<rect x="48" y="22" width="2" height="2" fill="#C4C4C4"/>
<rect x="50" y="20" width="2" height="2" fill="#C4C4C4"/>
<rect x="52" y="22" width="2" height="2" fill="#C4C4C4"/>
<rect x="54" y="20" width="2" height="2" fill="#C4C4C4"/>
<rect x="56" y="22" width="2" height="2" fill="#C4C4C4"/>
<rect x="58" y="20" width="2" height="2" fill="#C4C4C4"/>
<rect x="60" y="22" width="2" height="2" fill="#C4C4C4"/>
<rect x="62" y="20" width="2" height="2" fill="#C4C4C4"/>
<rect x="64" y="22" width="2" height="2" fill="#C4C4C4"/>
<rect x="66" y="20" width="2" height="2" fill="#C4C4C4"/>
<rect x="68" y="22" width="2" height="2" fill="#C4C4C4"/>
<rect x="70" y="20" width="2" height="2" fill="#C4C4C4"/>
<rect x="24" y="22" width="2" height="2" fill="#C4C4C4"/>
<rect x="26" y="20" width="2" height="2" fill="#C4C4C4"/>
<rect x="28" y="22" width="2" height="2" fill="#C4C4C4"/>
<rect x="30" y="20" width="2" height="2" fill="#C4C4C4"/>
<rect x="32" y="22" width="2" height="2" fill="#C4C4C4"/>
<rect x="34" y="20" width="2" height="2" fill="#C4C4C4"/>
<rect x="36" y="22" width="2" height="2" fill="#C4C4C4"/>
<rect x="6" y="24" width="2" height="2" fill="#C4C4C4"/>
<rect x="8" y="26" width="2" height="2" fill="#C4C4C4"/>
<rect x="10" y="24" width="2" height="2" fill="#C4C4C4"/>
<rect x="12" y="26" width="2" height="2" fill="#C4C4C4"/>
<rect x="14" y="24" width="2" height="2" fill="#C4C4C4"/>
<rect x="16" y="26" width="2" height="2" fill="#C4C4C4"/>
<rect x="18" y="24" width="2" height="2" fill="#C4C4C4"/>
<rect x="20" y="26" width="2" height="2" fill="#C4C4C4"/>
<rect x="22" y="24" width="2" height="2" fill="#C4C4C4"/>
<rect x="38" y="24" width="2" height="2" fill="#C4C4C4"/>
<rect x="40" y="26" width="2" height="2" fill="#C4C4C4"/>
<rect x="42" y="24" width="2" height="2" fill="#C4C4C4"/>
<rect x="44" y="26" width="2" height="2" fill="#C4C4C4"/>
<rect x="46" y="24" width="2" height="2" fill="#C4C4C4"/>
<rect x="48" y="26" width="2" height="2" fill="#C4C4C4"/>
<rect x="50" y="24" width="2" height="2" fill="#C4C4C4"/>
<rect x="52" y="26" width="2" height="2" fill="#C4C4C4"/>
<rect x="54" y="24" width="2" height="2" fill="#C4C4C4"/>
<rect x="56" y="26" width="2" height="2" fill="#C4C4C4"/>
<rect x="58" y="24" width="2" height="2" fill="#C4C4C4"/>
<rect x="60" y="26" width="2" height="2" fill="#C4C4C4"/>
<rect x="62" y="24" width="2" height="2" fill="#C4C4C4"/>
<rect x="64" y="26" width="2" height="2" fill="#C4C4C4"/>
<rect x="66" y="24" width="2" height="2" fill="#C4C4C4"/>
<rect x="68" y="26" width="2" height="2" fill="#C4C4C4"/>
<rect x="70" y="24" width="2" height="2" fill="#C4C4C4"/>
<rect x="24" y="26" width="2" height="2" fill="#C4C4C4"/>
<rect x="26" y="24" width="2" height="2" fill="#C4C4C4"/>
<rect x="28" y="26" width="2" height="2" fill="#C4C4C4"/>
<rect x="30" y="24" width="2" height="2" fill="#C4C4C4"/>
<rect x="32" y="26" width="2" height="2" fill="#C4C4C4"/>
<rect x="34" y="24" width="2" height="2" fill="#C4C4C4"/>
<rect x="36" y="26" width="2" height="2" fill="#C4C4C4"/>
<rect x="6" y="28" width="2" height="2" fill="#C4C4C4"/>
<rect x="8" y="30" width="2" height="2" fill="#C4C4C4"/>
<rect x="10" y="28" width="2" height="2" fill="#C4C4C4"/>
<rect x="12" y="30" width="2" height="2" fill="#C4C4C4"/>
<rect x="14" y="28" width="2" height="2" fill="#C4C4C4"/>
<rect x="16" y="30" width="2" height="2" fill="#C4C4C4"/>
<rect x="18" y="28" width="2" height="2" fill="#C4C4C4"/>
<rect x="20" y="30" width="2" height="2" fill="#C4C4C4"/>
<rect x="22" y="28" width="2" height="2" fill="#C4C4C4"/>
<rect x="38" y="28" width="2" height="2" fill="#C4C4C4"/>
<rect x="40" y="30" width="2" height="2" fill="#C4C4C4"/>
<rect x="42" y="28" width="2" height="2" fill="#C4C4C4"/>
<rect x="44" y="30" width="2" height="2" fill="#C4C4C4"/>
<rect x="46" y="28" width="2" height="2" fill="#C4C4C4"/>
<rect x="48" y="30" width="2" height="2" fill="#C4C4C4"/>
<rect x="50" y="28" width="2" height="2" fill="#C4C4C4"/>
<rect x="52" y="30" width="2" height="2" fill="#C4C4C4"/>
<rect x="54" y="28" width="2" height="2" fill="#C4C4C4"/>
<rect x="56" y="30" width="2" height="2" fill="#C4C4C4"/>
<rect x="58" y="28" width="2" height="2" fill="#C4C4C4"/>
<rect x="60" y="30" width="2" height="2" fill="#C4C4C4"/>
<rect x="62" y="28" width="2" height="2" fill="#C4C4C4"/>
<rect x="64" y="30" width="2" height="2" fill="#C4C4C4"/>
<rect x="66" y="28" width="2" height="2" fill="#C4C4C4"/>
<rect x="68" y="30" width="2" height="2" fill="#C4C4C4"/>
<rect x="70" y="28" width="2" height="2" fill="#C4C4C4"/>
<rect x="24" y="30" width="2" height="2" fill="#C4C4C4"/>
<rect x="26" y="28" width="2" height="2" fill="#C4C4C4"/>
<rect x="28" y="30" width="2" height="2" fill="#C4C4C4"/>
<rect x="30" y="28" width="2" height="2" fill="#C4C4C4"/>
<rect x="32" y="30" width="2" height="2" fill="#C4C4C4"/>
<rect x="34" y="28" width="2" height="2" fill="#C4C4C4"/>
<rect x="36" y="30" width="2" height="2" fill="#C4C4C4"/>
<rect x="6" y="32" width="2" height="2" fill="#C4C4C4"/>
<rect x="8" y="34" width="2" height="2" fill="#C4C4C4"/>
<rect x="10" y="32" width="2" height="2" fill="#C4C4C4"/>
<rect x="12" y="34" width="2" height="2" fill="#C4C4C4"/>
<rect x="14" y="32" width="2" height="2" fill="#C4C4C4"/>
<rect x="16" y="34" width="2" height="2" fill="#C4C4C4"/>
<rect x="18" y="32" width="2" height="2" fill="#C4C4C4"/>
<rect x="20" y="34" width="2" height="2" fill="#C4C4C4"/>
<rect x="22" y="32" width="2" height="2" fill="#C4C4C4"/>
<rect x="38" y="32" width="2" height="2" fill="#C4C4C4"/>
<rect x="40" y="34" width="2" height="2" fill="#C4C4C4"/>
<rect x="42" y="32" width="2" height="2" fill="#C4C4C4"/>
<rect x="44" y="34" width="2" height="2" fill="#C4C4C4"/>
<rect x="46" y="32" width="2" height="2" fill="#C4C4C4"/>
<rect x="48" y="34" width="2" height="2" fill="#C4C4C4"/>
<rect x="50" y="32" width="2" height="2" fill="#C4C4C4"/>
<rect x="52" y="34" width="2" height="2" fill="#C4C4C4"/>
<rect x="54" y="32" width="2" height="2" fill="#C4C4C4"/>
<rect x="56" y="34" width="2" height="2" fill="#C4C4C4"/>
<rect x="58" y="32" width="2" height="2" fill="#C4C4C4"/>
<rect x="60" y="34" width="2" height="2" fill="#C4C4C4"/>
<rect x="62" y="32" width="2" height="2" fill="#C4C4C4"/>
<rect x="64" y="34" width="2" height="2" fill="#C4C4C4"/>
<rect x="66" y="32" width="2" height="2" fill="#C4C4C4"/>
<rect x="68" y="34" width="2" height="2" fill="#C4C4C4"/>
<rect x="70" y="32" width="2" height="2" fill="#C4C4C4"/>
<rect x="24" y="34" width="2" height="2" fill="#C4C4C4"/>
<rect x="26" y="32" width="2" height="2" fill="#C4C4C4"/>
<rect x="28" y="34" width="2" height="2" fill="#C4C4C4"/>
<rect x="30" y="32" width="2" height="2" fill="#C4C4C4"/>
<rect x="32" y="34" width="2" height="2" fill="#C4C4C4"/>
<rect x="34" y="32" width="2" height="2" fill="#C4C4C4"/>
<rect x="36" y="34" width="2" height="2" fill="#C4C4C4"/>
<rect x="6" y="36" width="2" height="2" fill="#C4C4C4"/>
<rect x="8" y="38" width="2" height="2" fill="#C4C4C4"/>
<rect x="10" y="36" width="2" height="2" fill="#C4C4C4"/>
<rect x="12" y="38" width="2" height="2" fill="#C4C4C4"/>
<rect x="14" y="36" width="2" height="2" fill="#C4C4C4"/>
<rect x="16" y="38" width="2" height="2" fill="#C4C4C4"/>
<rect x="18" y="36" width="2" height="2" fill="#C4C4C4"/>
<rect x="20" y="38" width="2" height="2" fill="#C4C4C4"/>
<rect x="22" y="36" width="2" height="2" fill="#C4C4C4"/>
<rect x="38" y="36" width="2" height="2" fill="#C4C4C4"/>
<rect x="40" y="38" width="2" height="2" fill="#C4C4C4"/>
<rect x="42" y="36" width="2" height="2" fill="#C4C4C4"/>
<rect x="44" y="38" width="2" height="2" fill="#C4C4C4"/>
<rect x="46" y="36" width="2" height="2" fill="#C4C4C4"/>
<rect x="48" y="38" width="2" height="2" fill="#C4C4C4"/>
<rect x="50" y="36" width="2" height="2" fill="#C4C4C4"/>
<rect x="52" y="38" width="2" height="2" fill="#C4C4C4"/>
<rect x="54" y="36" width="2" height="2" fill="#C4C4C4"/>
<rect x="56" y="38" width="2" height="2" fill="#C4C4C4"/>
<rect x="58" y="36" width="2" height="2" fill="#C4C4C4"/>
<rect x="60" y="38" width="2" height="2" fill="#C4C4C4"/>
<rect x="62" y="36" width="2" height="2" fill="#C4C4C4"/>
<rect x="64" y="38" width="2" height="2" fill="#C4C4C4"/>
<rect x="66" y="36" width="2" height="2" fill="#C4C4C4"/>
<rect x="68" y="38" width="2" height="2" fill="#C4C4C4"/>
<rect x="70" y="36" width="2" height="2" fill="#C4C4C4"/>
<rect x="24" y="38" width="2" height="2" fill="#C4C4C4"/>
<rect x="26" y="36" width="2" height="2" fill="#C4C4C4"/>
<rect x="28" y="38" width="2" height="2" fill="#C4C4C4"/>
<rect x="30" y="36" width="2" height="2" fill="#C4C4C4"/>
<rect x="32" y="38" width="2" height="2" fill="#C4C4C4"/>
<rect x="34" y="36" width="2" height="2" fill="#C4C4C4"/>
<rect x="36" y="38" width="2" height="2" fill="#C4C4C4"/>
<rect x="6" y="40" width="2" height="2" fill="#C4C4C4"/>
<rect x="8" y="42" width="2" height="2" fill="#C4C4C4"/>
<rect x="10" y="40" width="2" height="2" fill="#C4C4C4"/>
<rect x="12" y="42" width="2" height="2" fill="#C4C4C4"/>
<rect x="14" y="40" width="2" height="2" fill="#C4C4C4"/>
<rect x="16" y="42" width="2" height="2" fill="#C4C4C4"/>
<rect x="18" y="40" width="2" height="2" fill="#C4C4C4"/>
<rect x="20" y="42" width="2" height="2" fill="#C4C4C4"/>
<rect x="22" y="40" width="2" height="2" fill="#C4C4C4"/>
<rect x="38" y="40" width="2" height="2" fill="#C4C4C4"/>
<rect x="40" y="42" width="2" height="2" fill="#C4C4C4"/>
<rect x="42" y="40" width="2" height="2" fill="#C4C4C4"/>
<rect x="44" y="42" width="2" height="2" fill="#C4C4C4"/>
<rect x="46" y="40" width="2" height="2" fill="#C4C4C4"/>
<rect x="48" y="42" width="2" height="2" fill="#C4C4C4"/>
<rect x="50" y="40" width="2" height="2" fill="#C4C4C4"/>
<rect x="52" y="42" width="2" height="2" fill="#C4C4C4"/>
<rect x="54" y="40" width="2" height="2" fill="#C4C4C4"/>
<rect x="56" y="42" width="2" height="2" fill="#C4C4C4"/>
<rect x="58" y="40" width="2" height="2" fill="#C4C4C4"/>
<rect x="60" y="42" width="2" height="2" fill="#C4C4C4"/>
<rect x="62" y="40" width="2" height="2" fill="#C4C4C4"/>
<rect x="64" y="42" width="2" height="2" fill="#C4C4C4"/>
<rect x="66" y="40" width="2" height="2" fill="#C4C4C4"/>
<rect x="68" y="42" width="2" height="2" fill="#C4C4C4"/>
<rect x="70" y="40" width="2" height="2" fill="#C4C4C4"/>
<rect x="24" y="42" width="2" height="2" fill="#C4C4C4"/>
<rect x="26" y="40" width="2" height="2" fill="#C4C4C4"/>
<rect x="28" y="42" width="2" height="2" fill="#C4C4C4"/>
<rect x="30" y="40" width="2" height="2" fill="#C4C4C4"/>
<rect x="32" y="42" width="2" height="2" fill="#C4C4C4"/>
<rect x="34" y="40" width="2" height="2" fill="#C4C4C4"/>
<rect x="36" y="42" width="2" height="2" fill="#C4C4C4"/>
<rect x="6" y="44" width="2" height="2" fill="#C4C4C4"/>
<rect x="8" y="46" width="2" height="2" fill="#C4C4C4"/>
<rect x="10" y="44" width="2" height="2" fill="#C4C4C4"/>
<rect x="12" y="46" width="2" height="2" fill="#C4C4C4"/>
<rect x="14" y="44" width="2" height="2" fill="#C4C4C4"/>
<rect x="16" y="46" width="2" height="2" fill="#C4C4C4"/>
<rect x="18" y="44" width="2" height="2" fill="#C4C4C4"/>
<rect x="20" y="46" width="2" height="2" fill="#C4C4C4"/>
<rect x="22" y="44" width="2" height="2" fill="#C4C4C4"/>
<rect x="38" y="44" width="2" height="2" fill="#C4C4C4"/>
<rect x="40" y="46" width="2" height="2" fill="#C4C4C4"/>
<rect x="42" y="44" width="2" height="2" fill="#C4C4C4"/>
<rect x="44" y="46" width="2" height="2" fill="#C4C4C4"/>
<rect x="46" y="44" width="2" height="2" fill="#C4C4C4"/>
<rect x="48" y="46" width="2" height="2" fill="#C4C4C4"/>
<rect x="50" y="44" width="2" height="2" fill="#C4C4C4"/>
<rect x="52" y="46" width="2" height="2" fill="#C4C4C4"/>
<rect x="54" y="44" width="2" height="2" fill="#C4C4C4"/>
<rect x="56" y="46" width="2" height="2" fill="#C4C4C4"/>
<rect x="58" y="44" width="2" height="2" fill="#C4C4C4"/>
<rect x="60" y="46" width="2" height="2" fill="#C4C4C4"/>
<rect x="62" y="44" width="2" height="2" fill="#C4C4C4"/>
<rect x="64" y="46" width="2" height="2" fill="#C4C4C4"/>
<rect x="66" y="44" width="2" height="2" fill="#C4C4C4"/>
<rect x="68" y="46" width="2" height="2" fill="#C4C4C4"/>
<rect x="70" y="44" width="2" height="2" fill="#C4C4C4"/>
<rect x="24" y="46" width="2" height="2" fill="#C4C4C4"/>
<rect x="26" y="44" width="2" height="2" fill="#C4C4C4"/>
<rect x="28" y="46" width="2" height="2" fill="#C4C4C4"/>
<rect x="30" y="44" width="2" height="2" fill="#C4C4C4"/>
<rect x="32" y="46" width="2" height="2" fill="#C4C4C4"/>
<rect x="34" y="44" width="2" height="2" fill="#C4C4C4"/>
<rect x="36" y="46" width="2" height="2" fill="#C4C4C4"/>
<rect x="6" y="48" width="2" height="2" fill="#C4C4C4"/>
<rect x="8" y="50" width="2" height="2" fill="#C4C4C4"/>
<rect x="10" y="48" width="2" height="2" fill="#C4C4C4"/>
<rect x="12" y="50" width="2" height="2" fill="#C4C4C4"/>
<rect x="14" y="48" width="2" height="2" fill="#C4C4C4"/>
<rect x="16" y="50" width="2" height="2" fill="#C4C4C4"/>
<rect x="18" y="48" width="2" height="2" fill="#C4C4C4"/>
<rect x="20" y="50" width="2" height="2" fill="#C4C4C4"/>
<rect x="22" y="48" width="2" height="2" fill="#C4C4C4"/>
<rect x="38" y="48" width="2" height="2" fill="#C4C4C4"/>
<rect x="40" y="50" width="2" height="2" fill="#C4C4C4"/>
<rect x="42" y="48" width="2" height="2" fill="#C4C4C4"/>
<rect x="44" y="50" width="2" height="2" fill="#C4C4C4"/>
<rect x="46" y="48" width="2" height="2" fill="#C4C4C4"/>
<rect x="48" y="50" width="2" height="2" fill="#C4C4C4"/>
<rect x="50" y="48" width="2" height="2" fill="#C4C4C4"/>
<rect x="52" y="50" width="2" height="2" fill="#C4C4C4"/>
<rect x="54" y="48" width="2" height="2" fill="#C4C4C4"/>
<rect x="56" y="50" width="2" height="2" fill="#C4C4C4"/>
<rect x="58" y="48" width="2" height="2" fill="#C4C4C4"/>
<rect x="60" y="50" width="2" height="2" fill="#C4C4C4"/>
<rect x="62" y="48" width="2" height="2" fill="#C4C4C4"/>
<rect x="64" y="50" width="2" height="2" fill="#C4C4C4"/>
<rect x="66" y="48" width="2" height="2" fill="#C4C4C4"/>
<rect x="68" y="50" width="2" height="2" fill="#C4C4C4"/>
<rect x="70" y="48" width="2" height="2" fill="#C4C4C4"/>
<rect x="24" y="50" width="2" height="2" fill="#C4C4C4"/>
<rect x="26" y="48" width="2" height="2" fill="#C4C4C4"/>
<rect x="28" y="50" width="2" height="2" fill="#C4C4C4"/>
<rect x="30" y="48" width="2" height="2" fill="#C4C4C4"/>
<rect x="32" y="50" width="2" height="2" fill="#C4C4C4"/>
<rect x="34" y="48" width="2" height="2" fill="#C4C4C4"/>
<rect x="36" y="50" width="2" height="2" fill="#C4C4C4"/>
<rect x="6" y="52" width="2" height="2" fill="#C4C4C4"/>
<rect x="8" y="54" width="2" height="2" fill="#C4C4C4"/>
<rect x="10" y="52" width="2" height="2" fill="#C4C4C4"/>
<rect x="12" y="54" width="2" height="2" fill="#C4C4C4"/>
<rect x="14" y="52" width="2" height="2" fill="#C4C4C4"/>
<rect x="16" y="54" width="2" height="2" fill="#C4C4C4"/>
<rect x="18" y="52" width="2" height="2" fill="#C4C4C4"/>
<rect x="20" y="54" width="2" height="2" fill="#C4C4C4"/>
<rect x="22" y="52" width="2" height="2" fill="#C4C4C4"/>
<rect x="38" y="52" width="2" height="2" fill="#C4C4C4"/>
<rect x="40" y="54" width="2" height="2" fill="#C4C4C4"/>
<rect x="42" y="52" width="2" height="2" fill="#C4C4C4"/>
<rect x="44" y="54" width="2" height="2" fill="#C4C4C4"/>
<rect x="46" y="52" width="2" height="2" fill="#C4C4C4"/>
<rect x="48" y="54" width="2" height="2" fill="#C4C4C4"/>
<rect x="50" y="52" width="2" height="2" fill="#C4C4C4"/>
<rect x="52" y="54" width="2" height="2" fill="#C4C4C4"/>
<rect x="54" y="52" width="2" height="2" fill="#C4C4C4"/>
<rect x="56" y="54" width="2" height="2" fill="#C4C4C4"/>
<rect x="58" y="52" width="2" height="2" fill="#C4C4C4"/>
<rect x="60" y="54" width="2" height="2" fill="#C4C4C4"/>
<rect x="62" y="52" width="2" height="2" fill="#C4C4C4"/>
<rect x="64" y="54" width="2" height="2" fill="#C4C4C4"/>
<rect x="66" y="52" width="2" height="2" fill="#C4C4C4"/>
<rect x="68" y="54" width="2" height="2" fill="#C4C4C4"/>
<rect x="70" y="52" width="2" height="2" fill="#C4C4C4"/>
<rect x="24" y="54" width="2" height="2" fill="#C4C4C4"/>
<rect x="26" y="52" width="2" height="2" fill="#C4C4C4"/>
<rect x="28" y="54" width="2" height="2" fill="#C4C4C4"/>
<rect x="30" y="52" width="2" height="2" fill="#C4C4C4"/>
<rect x="32" y="54" width="2" height="2" fill="#C4C4C4"/>
<rect x="34" y="52" width="2" height="2" fill="#C4C4C4"/>
<rect x="36" y="54" width="2" height="2" fill="#C4C4C4"/>
<rect x="6" y="56" width="2" height="2" fill="#C4C4C4"/>
<rect x="8" y="58" width="2" height="2" fill="#C4C4C4"/>
<rect x="10" y="56" width="2" height="2" fill="#C4C4C4"/>
<rect x="12" y="58" width="2" height="2" fill="#C4C4C4"/>
<rect x="14" y="56" width="2" height="2" fill="#C4C4C4"/>
<rect x="16" y="58" width="2" height="2" fill="#C4C4C4"/>
<rect x="18" y="56" width="2" height="2" fill="#C4C4C4"/>
<rect x="20" y="58" width="2" height="2" fill="#C4C4C4"/>
<rect x="22" y="56" width="2" height="2" fill="#C4C4C4"/>
<rect x="38" y="56" width="2" height="2" fill="#C4C4C4"/>
<rect x="40" y="58" width="2" height="2" fill="#C4C4C4"/>
<rect x="42" y="56" width="2" height="2" fill="#C4C4C4"/>
<rect x="44" y="58" width="2" height="2" fill="#C4C4C4"/>
<rect x="46" y="56" width="2" height="2" fill="#C4C4C4"/>
<rect x="48" y="58" width="2" height="2" fill="#C4C4C4"/>
<rect x="50" y="56" width="2" height="2" fill="#C4C4C4"/>
<rect x="52" y="58" width="2" height="2" fill="#C4C4C4"/>
<rect x="54" y="56" width="2" height="2" fill="#C4C4C4"/>
<rect x="56" y="58" width="2" height="2" fill="#C4C4C4"/>
<rect x="58" y="56" width="2" height="2" fill="#C4C4C4"/>
<rect x="60" y="58" width="2" height="2" fill="#C4C4C4"/>
<rect x="62" y="56" width="2" height="2" fill="#C4C4C4"/>
<rect x="64" y="58" width="2" height="2" fill="#C4C4C4"/>
<rect x="66" y="56" width="2" height="2" fill="#C4C4C4"/>
<rect x="68" y="58" width="2" height="2" fill="#C4C4C4"/>
<rect x="70" y="56" width="2" height="2" fill="#C4C4C4"/>
<rect x="24" y="58" width="2" height="2" fill="#C4C4C4"/>
<rect x="26" y="56" width="2" height="2" fill="#C4C4C4"/>
<rect x="28" y="58" width="2" height="2" fill="#C4C4C4"/>
<rect x="30" y="56" width="2" height="2" fill="#C4C4C4"/>
<rect x="32" y="58" width="2" height="2" fill="#C4C4C4"/>
<rect x="34" y="56" width="2" height="2" fill="#C4C4C4"/>
<rect x="36" y="58" width="2" height="2" fill="#C4C4C4"/>
<rect x="6" y="60" width="2" height="2" fill="#C4C4C4"/>
<rect x="8" y="62" width="2" height="2" fill="#C4C4C4"/>
<rect x="10" y="60" width="2" height="2" fill="#C4C4C4"/>
<rect x="12" y="62" width="2" height="2" fill="#C4C4C4"/>
<rect x="14" y="60" width="2" height="2" fill="#C4C4C4"/>
<rect x="16" y="62" width="2" height="2" fill="#C4C4C4"/>
<rect x="18" y="60" width="2" height="2" fill="#C4C4C4"/>
<rect x="20" y="62" width="2" height="2" fill="#C4C4C4"/>
<rect x="22" y="60" width="2" height="2" fill="#C4C4C4"/>
<rect x="38" y="60" width="2" height="2" fill="#C4C4C4"/>
<rect x="40" y="62" width="2" height="2" fill="#C4C4C4"/>
<rect x="42" y="60" width="2" height="2" fill="#C4C4C4"/>
<rect x="44" y="62" width="2" height="2" fill="#C4C4C4"/>
<rect x="46" y="60" width="2" height="2" fill="#C4C4C4"/>
<rect x="48" y="62" width="2" height="2" fill="#C4C4C4"/>
<rect x="50" y="60" width="2" height="2" fill="#C4C4C4"/>
<rect x="52" y="62" width="2" height="2" fill="#C4C4C4"/>
<rect x="54" y="60" width="2" height="2" fill="#C4C4C4"/>
<rect x="56" y="62" width="2" height="2" fill="#C4C4C4"/>
<rect x="58" y="60" width="2" height="2" fill="#C4C4C4"/>
<rect x="60" y="62" width="2" height="2" fill="#C4C4C4"/>
<rect x="62" y="60" width="2" height="2" fill="#C4C4C4"/>
<rect x="64" y="62" width="2" height="2" fill="#C4C4C4"/>
<rect x="66" y="60" width="2" height="2" fill="#C4C4C4"/>
<rect x="68" y="62" width="2" height="2" fill="#C4C4C4"/>
<rect x="70" y="60" width="2" height="2" fill="#C4C4C4"/>
<rect x="24" y="62" width="2" height="2" fill="#C4C4C4"/>
<rect x="26" y="60" width="2" height="2" fill="#C4C4C4"/>
<rect x="28" y="62" width="2" height="2" fill="#C4C4C4"/>
<rect x="30" y="60" width="2" height="2" fill="#C4C4C4"/>
<rect x="32" y="62" width="2" height="2" fill="#C4C4C4"/>
<rect x="34" y="60" width="2" height="2" fill="#C4C4C4"/>
<rect x="36" y="62" width="2" height="2" fill="#C4C4C4"/>
<rect x="6" y="64" width="2" height="2" fill="#C4C4C4"/>
<rect x="8" y="66" width="2" height="2" fill="#C4C4C4"/>
<rect x="10" y="64" width="2" height="2" fill="#C4C4C4"/>
<rect x="12" y="66" width="2" height="2" fill="#C4C4C4"/>
<rect x="14" y="64" width="2" height="2" fill="#C4C4C4"/>
<rect x="16" y="66" width="2" height="2" fill="#C4C4C4"/>
<rect x="18" y="64" width="2" height="2" fill="#C4C4C4"/>
<rect x="20" y="66" width="2" height="2" fill="#C4C4C4"/>
<rect x="22" y="64" width="2" height="2" fill="#C4C4C4"/>
<rect x="38" y="64" width="2" height="2" fill="#C4C4C4"/>
<rect x="40" y="66" width="2" height="2" fill="#C4C4C4"/>
<rect x="42" y="64" width="2" height="2" fill="#C4C4C4"/>
<rect x="44" y="66" width="2" height="2" fill="#C4C4C4"/>
<rect x="46" y="64" width="2" height="2" fill="#C4C4C4"/>
<rect x="48" y="66" width="2" height="2" fill="#C4C4C4"/>
<rect x="50" y="64" width="2" height="2" fill="#C4C4C4"/>
<rect x="52" y="66" width="2" height="2" fill="#C4C4C4"/>
<rect x="54" y="64" width="2" height="2" fill="#C4C4C4"/>
<rect x="56" y="66" width="2" height="2" fill="#C4C4C4"/>
<rect x="58" y="64" width="2" height="2" fill="#C4C4C4"/>
<rect x="60" y="66" width="2" height="2" fill="#C4C4C4"/>
<rect x="62" y="64" width="2" height="2" fill="#C4C4C4"/>
<rect x="64" y="66" width="2" height="2" fill="#C4C4C4"/>
<rect x="66" y="64" width="2" height="2" fill="#C4C4C4"/>
<rect x="68" y="66" width="2" height="2" fill="#C4C4C4"/>
<rect x="70" y="64" width="2" height="2" fill="#C4C4C4"/>
<rect x="24" y="66" width="2" height="2" fill="#C4C4C4"/>
<rect x="26" y="64" width="2" height="2" fill="#C4C4C4"/>
<rect x="28" y="66" width="2" height="2" fill="#C4C4C4"/>
<rect x="30" y="64" width="2" height="2" fill="#C4C4C4"/>
<rect x="32" y="66" width="2" height="2" fill="#C4C4C4"/>
<rect x="34" y="64" width="2" height="2" fill="#C4C4C4"/>
<rect x="36" y="66" width="2" height="2" fill="#C4C4C4"/>
<rect x="6" y="68" width="2" height="2" fill="#C4C4C4"/>
<rect x="8" y="70" width="2" height="2" fill="#C4C4C4"/>
<rect x="10" y="68" width="2" height="2" fill="#C4C4C4"/>
<rect x="12" y="70" width="2" height="2" fill="#C4C4C4"/>
<rect x="14" y="68" width="2" height="2" fill="#C4C4C4"/>
<rect x="16" y="70" width="2" height="2" fill="#C4C4C4"/>
<rect x="18" y="68" width="2" height="2" fill="#C4C4C4"/>
<rect x="20" y="70" width="2" height="2" fill="#C4C4C4"/>
<rect x="22" y="68" width="2" height="2" fill="#C4C4C4"/>
<rect x="38" y="68" width="2" height="2" fill="#C4C4C4"/>
<rect x="40" y="70" width="2" height="2" fill="#C4C4C4"/>
<rect x="42" y="68" width="2" height="2" fill="#C4C4C4"/>
<rect x="44" y="70" width="2" height="2" fill="#C4C4C4"/>
<rect x="46" y="68" width="2" height="2" fill="#C4C4C4"/>
<rect x="48" y="70" width="2" height="2" fill="#C4C4C4"/>
<rect x="50" y="68" width="2" height="2" fill="#C4C4C4"/>
<rect x="52" y="70" width="2" height="2" fill="#C4C4C4"/>
<rect x="54" y="68" width="2" height="2" fill="#C4C4C4"/>
<rect x="56" y="70" width="2" height="2" fill="#C4C4C4"/>
<rect x="58" y="68" width="2" height="2" fill="#C4C4C4"/>
<rect x="60" y="70" width="2" height="2" fill="#C4C4C4"/>
<rect x="62" y="68" width="2" height="2" fill="#C4C4C4"/>
<rect x="64" y="70" width="2" height="2" fill="#C4C4C4"/>
<rect x="66" y="68" width="2" height="2" fill="#C4C4C4"/>
<rect x="68" y="70" width="2" height="2" fill="#C4C4C4"/>
<rect x="70" y="68" width="2" height="2" fill="#C4C4C4"/>
<rect x="24" y="70" width="2" height="2" fill="#C4C4C4"/>
<rect x="26" y="68" width="2" height="2" fill="#C4C4C4"/>
<rect x="28" y="70" width="2" height="2" fill="#C4C4C4"/>
<rect x="30" y="68" width="2" height="2" fill="#C4C4C4"/>
<rect x="32" y="70" width="2" height="2" fill="#C4C4C4"/>
<rect x="34" y="68" width="2" height="2" fill="#C4C4C4"/>
<rect x="36" y="70" width="2" height="2" fill="#C4C4C4"/>
<rect x="6" y="72" width="2" height="2" fill="#C4C4C4"/>
<rect x="8" y="74" width="2" height="2" fill="#C4C4C4"/>
<rect x="10" y="72" width="2" height="2" fill="#C4C4C4"/>
<rect x="12" y="74" width="2" height="2" fill="#C4C4C4"/>
<rect x="14" y="72" width="2" height="2" fill="#C4C4C4"/>
<rect x="16" y="74" width="2" height="2" fill="#C4C4C4"/>
<rect x="18" y="72" width="2" height="2" fill="#C4C4C4"/>
<rect x="20" y="74" width="2" height="2" fill="#C4C4C4"/>
<rect x="22" y="72" width="2" height="2" fill="#C4C4C4"/>
<rect x="38" y="72" width="2" height="2" fill="#C4C4C4"/>
<rect x="40" y="74" width="2" height="2" fill="#C4C4C4"/>
<rect x="42" y="72" width="2" height="2" fill="#C4C4C4"/>
<rect x="44" y="74" width="2" height="2" fill="#C4C4C4"/>
<rect x="46" y="72" width="2" height="2" fill="#C4C4C4"/>
<rect x="48" y="74" width="2" height="2" fill="#C4C4C4"/>
<rect x="50" y="72" width="2" height="2" fill="#C4C4C4"/>
<rect x="52" y="74" width="2" height="2" fill="#C4C4C4"/>
<rect x="54" y="72" width="2" height="2" fill="#C4C4C4"/>
<rect x="56" y="74" width="2" height="2" fill="#C4C4C4"/>
<rect x="58" y="72" width="2" height="2" fill="#C4C4C4"/>
<rect x="60" y="74" width="2" height="2" fill="#C4C4C4"/>
<rect x="62" y="72" width="2" height="2" fill="#C4C4C4"/>
<rect x="64" y="74" width="2" height="2" fill="#C4C4C4"/>
<rect x="66" y="72" width="2" height="2" fill="#C4C4C4"/>
<rect x="68" y="74" width="2" height="2" fill="#C4C4C4"/>
<rect x="70" y="72" width="2" height="2" fill="#C4C4C4"/>
<rect x="24" y="74" width="2" height="2" fill="#C4C4C4"/>
<rect x="26" y="72" width="2" height="2" fill="#C4C4C4"/>
<rect x="28" y="74" width="2" height="2" fill="#C4C4C4"/>
<rect x="30" y="72" width="2" height="2" fill="#C4C4C4"/>
<rect x="32" y="74" width="2" height="2" fill="#C4C4C4"/>
<rect x="34" y="72" width="2" height="2" fill="#C4C4C4"/>
<rect x="36" y="74" width="2" height="2" fill="#C4C4C4"/>
<rect x="6" y="76" width="2" height="2" fill="#C4C4C4"/>
<rect x="8" y="78" width="2" height="2" fill="#C4C4C4"/>
<rect x="10" y="76" width="2" height="2" fill="#C4C4C4"/>
<rect x="12" y="78" width="2" height="2" fill="#C4C4C4"/>
<rect x="14" y="76" width="2" height="2" fill="#C4C4C4"/>
<rect x="16" y="78" width="2" height="2" fill="#C4C4C4"/>
<rect x="18" y="76" width="2" height="2" fill="#C4C4C4"/>
<rect x="20" y="78" width="2" height="2" fill="#C4C4C4"/>
<rect x="22" y="76" width="2" height="2" fill="#C4C4C4"/>
<rect x="38" y="76" width="2" height="2" fill="#C4C4C4"/>
<rect x="40" y="78" width="2" height="2" fill="#C4C4C4"/>
<rect x="42" y="76" width="2" height="2" fill="#C4C4C4"/>
<rect x="44" y="78" width="2" height="2" fill="#C4C4C4"/>
<rect x="46" y="76" width="2" height="2" fill="#C4C4C4"/>
<rect x="48" y="78" width="2" height="2" fill="#C4C4C4"/>
<rect x="50" y="76" width="2" height="2" fill="#C4C4C4"/>
<rect x="52" y="78" width="2" height="2" fill="#C4C4C4"/>
<rect x="54" y="76" width="2" height="2" fill="#C4C4C4"/>
<rect x="56" y="78" width="2" height="2" fill="#C4C4C4"/>
<rect x="58" y="76" width="2" height="2" fill="#C4C4C4"/>
<rect x="60" y="78" width="2" height="2" fill="#C4C4C4"/>
<rect x="62" y="76" width="2" height="2" fill="#C4C4C4"/>
<rect x="64" y="78" width="2" height="2" fill="#C4C4C4"/>
<rect x="66" y="76" width="2" height="2" fill="#C4C4C4"/>
<rect x="68" y="78" width="2" height="2" fill="#C4C4C4"/>
<rect x="70" y="76" width="2" height="2" fill="#C4C4C4"/>
<rect x="24" y="78" width="2" height="2" fill="#C4C4C4"/>
<rect x="26" y="76" width="2" height="2" fill="#C4C4C4"/>
<rect x="28" y="78" width="2" height="2" fill="#C4C4C4"/>
<rect x="30" y="76" width="2" height="2" fill="#C4C4C4"/>
<rect x="32" y="78" width="2" height="2" fill="#C4C4C4"/>
<rect x="34" y="76" width="2" height="2" fill="#C4C4C4"/>
<rect x="36" y="78" width="2" height="2" fill="#C4C4C4"/>
<rect x="6" y="80" width="2" height="2" fill="#C4C4C4"/>
<rect x="8" y="82" width="2" height="2" fill="#C4C4C4"/>
<rect x="10" y="80" width="2" height="2" fill="#C4C4C4"/>
<rect x="12" y="82" width="2" height="2" fill="#C4C4C4"/>
<rect x="14" y="80" width="2" height="2" fill="#C4C4C4"/>
<rect x="16" y="82" width="2" height="2" fill="#C4C4C4"/>
<rect x="18" y="80" width="2" height="2" fill="#C4C4C4"/>
<rect x="20" y="82" width="2" height="2" fill="#C4C4C4"/>
<rect x="22" y="80" width="2" height="2" fill="#C4C4C4"/>
<rect x="38" y="80" width="2" height="2" fill="#C4C4C4"/>
<rect x="40" y="82" width="2" height="2" fill="#C4C4C4"/>
<rect x="42" y="80" width="2" height="2" fill="#C4C4C4"/>
<rect x="44" y="82" width="2" height="2" fill="#C4C4C4"/>
<rect x="46" y="80" width="2" height="2" fill="#C4C4C4"/>
<rect x="48" y="82" width="2" height="2" fill="#C4C4C4"/>
<rect x="50" y="80" width="2" height="2" fill="#C4C4C4"/>
<rect x="52" y="82" width="2" height="2" fill="#C4C4C4"/>
<rect x="54" y="80" width="2" height="2" fill="#C4C4C4"/>
<rect x="56" y="82" width="2" height="2" fill="#C4C4C4"/>
<rect x="58" y="80" width="2" height="2" fill="#C4C4C4"/>
<rect x="60" y="82" width="2" height="2" fill="#C4C4C4"/>
<rect x="62" y="80" width="2" height="2" fill="#C4C4C4"/>
<rect x="64" y="82" width="2" height="2" fill="#C4C4C4"/>
<rect x="66" y="80" width="2" height="2" fill="#C4C4C4"/>
<rect x="68" y="82" width="2" height="2" fill="#C4C4C4"/>
<rect x="70" y="80" width="2" height="2" fill="#C4C4C4"/>
<rect x="24" y="82" width="2" height="2" fill="#C4C4C4"/>
<rect x="26" y="80" width="2" height="2" fill="#C4C4C4"/>
<rect x="28" y="82" width="2" height="2" fill="#C4C4C4"/>
<rect x="30" y="80" width="2" height="2" fill="#C4C4C4"/>
<rect x="32" y="82" width="2" height="2" fill="#C4C4C4"/>
<rect x="34" y="80" width="2" height="2" fill="#C4C4C4"/>
<rect x="36" y="82" width="2" height="2" fill="#C4C4C4"/>
<rect x="6" y="84" width="2" height="2" fill="#C4C4C4"/>
<rect x="8" y="86" width="2" height="2" fill="#C4C4C4"/>
<rect x="10" y="84" width="2" height="2" fill="#C4C4C4"/>
<rect x="12" y="86" width="2" height="2" fill="#C4C4C4"/>
<rect x="14" y="84" width="2" height="2" fill="#C4C4C4"/>
<rect x="16" y="86" width="2" height="2" fill="#C4C4C4"/>
<rect x="18" y="84" width="2" height="2" fill="#C4C4C4"/>
<rect x="20" y="86" width="2" height="2" fill="#C4C4C4"/>
<rect x="22" y="84" width="2" height="2" fill="#C4C4C4"/>
<rect x="38" y="84" width="2" height="2" fill="#C4C4C4"/>
<rect x="40" y="86" width="2" height="2" fill="#C4C4C4"/>
<rect x="42" y="84" width="2" height="2" fill="#C4C4C4"/>
<rect x="44" y="86" width="2" height="2" fill="#C4C4C4"/>
<rect x="46" y="84" width="2" height="2" fill="#C4C4C4"/>
<rect x="48" y="86" width="2" height="2" fill="#C4C4C4"/>
<rect x="50" y="84" width="2" height="2" fill="#C4C4C4"/>
<rect x="52" y="86" width="2" height="2" fill="#C4C4C4"/>
<rect x="54" y="84" width="2" height="2" fill="#C4C4C4"/>
<rect x="56" y="86" width="2" height="2" fill="#C4C4C4"/>
<rect x="58" y="84" width="2" height="2" fill="#C4C4C4"/>
<rect x="60" y="86" width="2" height="2" fill="#C4C4C4"/>
<rect x="62" y="84" width="2" height="2" fill="#C4C4C4"/>
<rect x="64" y="86" width="2" height="2" fill="#C4C4C4"/>
<rect x="66" y="84" width="2" height="2" fill="#C4C4C4"/>
<rect x="68" y="86" width="2" height="2" fill="#C4C4C4"/>
<rect x="70" y="84" width="2" height="2" fill="#C4C4C4"/>
<rect x="24" y="86" width="2" height="2" fill="#C4C4C4"/>
<rect x="26" y="84" width="2" height="2" fill="#C4C4C4"/>
<rect x="28" y="86" width="2" height="2" fill="#C4C4C4"/>
<rect x="30" y="84" width="2" height="2" fill="#C4C4C4"/>
<rect x="32" y="86" width="2" height="2" fill="#C4C4C4"/>
<rect x="34" y="84" width="2" height="2" fill="#C4C4C4"/>
<rect x="36" y="86" width="2" height="2" fill="#C4C4C4"/>
<rect x="6" y="88" width="2" height="2" fill="#C4C4C4"/>
<rect x="8" y="90" width="2" height="2" fill="#C4C4C4"/>
<rect x="10" y="88" width="2" height="2" fill="#C4C4C4"/>
<rect x="12" y="90" width="2" height="2" fill="#C4C4C4"/>
<rect x="14" y="88" width="2" height="2" fill="#C4C4C4"/>
<rect x="16" y="90" width="2" height="2" fill="#C4C4C4"/>
<rect x="18" y="88" width="2" height="2" fill="#C4C4C4"/>
<rect x="20" y="90" width="2" height="2" fill="#C4C4C4"/>
<rect x="22" y="88" width="2" height="2" fill="#C4C4C4"/>
<rect x="38" y="88" width="2" height="2" fill="#C4C4C4"/>
<rect x="40" y="90" width="2" height="2" fill="#C4C4C4"/>
<rect x="42" y="88" width="2" height="2" fill="#C4C4C4"/>
<rect x="44" y="90" width="2" height="2" fill="#C4C4C4"/>
<rect x="46" y="88" width="2" height="2" fill="#C4C4C4"/>
<rect x="48" y="90" width="2" height="2" fill="#C4C4C4"/>
<rect x="50" y="88" width="2" height="2" fill="#C4C4C4"/>
<rect x="52" y="90" width="2" height="2" fill="#C4C4C4"/>
<rect x="54" y="88" width="2" height="2" fill="#C4C4C4"/>
<rect x="56" y="90" width="2" height="2" fill="#C4C4C4"/>
<rect x="58" y="88" width="2" height="2" fill="#C4C4C4"/>
<rect x="60" y="90" width="2" height="2" fill="#C4C4C4"/>
<rect x="62" y="88" width="2" height="2" fill="#C4C4C4"/>
<rect x="64" y="90" width="2" height="2" fill="#C4C4C4"/>
<rect x="66" y="88" width="2" height="2" fill="#C4C4C4"/>
<rect x="68" y="90" width="2" height="2" fill="#C4C4C4"/>
<rect x="70" y="88" width="2" height="2" fill="#C4C4C4"/>
<rect x="24" y="90" width="2" height="2" fill="#C4C4C4"/>
<rect x="26" y="88" width="2" height="2" fill="#C4C4C4"/>
<rect x="28" y="90" width="2" height="2" fill="#C4C4C4"/>
<rect x="30" y="88" width="2" height="2" fill="#C4C4C4"/>
<rect x="32" y="90" width="2" height="2" fill="#C4C4C4"/>
<rect x="34" y="88" width="2" height="2" fill="#C4C4C4"/>
<rect x="36" y="90" width="2" height="2" fill="#C4C4C4"/>
<rect x="6" y="92" width="2" height="2" fill="#C4C4C4"/>
<rect x="8" y="94" width="2" height="2" fill="#C4C4C4"/>
<rect x="10" y="92" width="2" height="2" fill="#C4C4C4"/>
<rect x="12" y="94" width="2" height="2" fill="#C4C4C4"/>
<rect x="14" y="92" width="2" height="2" fill="#C4C4C4"/>
<rect x="16" y="94" width="2" height="2" fill="#C4C4C4"/>
<rect x="18" y="92" width="2" height="2" fill="#C4C4C4"/>
<rect x="20" y="94" width="2" height="2" fill="#C4C4C4"/>
<rect x="22" y="92" width="2" height="2" fill="#C4C4C4"/>
<rect x="38" y="92" width="2" height="2" fill="#C4C4C4"/>
<rect x="40" y="94" width="2" height="2" fill="#C4C4C4"/>
<rect x="42" y="92" width="2" height="2" fill="#C4C4C4"/>
<rect x="44" y="94" width="2" height="2" fill="#C4C4C4"/>
<rect x="46" y="92" width="2" height="2" fill="#C4C4C4"/>
<rect x="48" y="94" width="2" height="2" fill="#C4C4C4"/>
<rect x="50" y="92" width="2" height="2" fill="#C4C4C4"/>
<rect x="52" y="94" width="2" height="2" fill="#C4C4C4"/>
<rect x="54" y="92" width="2" height="2" fill="#C4C4C4"/>
<rect x="56" y="94" width="2" height="2" fill="#C4C4C4"/>
<rect x="58" y="92" width="2" height="2" fill="#C4C4C4"/>
<rect x="60" y="94" width="2" height="2" fill="#C4C4C4"/>
<rect x="62" y="92" width="2" height="2" fill="#C4C4C4"/>
<rect x="64" y="94" width="2" height="2" fill="#C4C4C4"/>
<rect x="66" y="92" width="2" height="2" fill="#C4C4C4"/>
<rect x="68" y="94" width="2" height="2" fill="#C4C4C4"/>
<rect x="70" y="92" width="2" height="2" fill="#C4C4C4"/>
<rect x="24" y="94" width="2" height="2" fill="#C4C4C4"/>
<rect x="26" y="92" width="2" height="2" fill="#C4C4C4"/>
<rect x="28" y="94" width="2" height="2" fill="#C4C4C4"/>
<rect x="30" y="92" width="2" height="2" fill="#C4C4C4"/>
<rect x="32" y="94" width="2" height="2" fill="#C4C4C4"/>
<rect x="34" y="92" width="2" height="2" fill="#C4C4C4"/>
<rect x="36" y="94" width="2" height="2" fill="#C4C4C4"/>
<rect x="6" y="96" width="2" height="2" fill="#C4C4C4"/>
<rect x="8" y="98" width="2" height="2" fill="#C4C4C4"/>
<rect x="10" y="96" width="2" height="2" fill="#C4C4C4"/>
<rect x="12" y="98" width="2" height="2" fill="#C4C4C4"/>
<rect x="14" y="96" width="2" height="2" fill="#C4C4C4"/>
<rect x="16" y="98" width="2" height="2" fill="#C4C4C4"/>
<rect x="18" y="96" width="2" height="2" fill="#C4C4C4"/>
<rect x="20" y="98" width="2" height="2" fill="#C4C4C4"/>
<rect x="22" y="96" width="2" height="2" fill="#C4C4C4"/>
<rect x="38" y="96" width="2" height="2" fill="#C4C4C4"/>
<rect x="40" y="98" width="2" height="2" fill="#C4C4C4"/>
<rect x="42" y="96" width="2" height="2" fill="#C4C4C4"/>
<rect x="44" y="98" width="2" height="2" fill="#C4C4C4"/>
<rect x="46" y="96" width="2" height="2" fill="#C4C4C4"/>
<rect x="48" y="98" width="2" height="2" fill="#C4C4C4"/>
<rect x="50" y="96" width="2" height="2" fill="#C4C4C4"/>
<rect x="52" y="98" width="2" height="2" fill="#C4C4C4"/>
<rect x="54" y="96" width="2" height="2" fill="#C4C4C4"/>
<rect x="56" y="98" width="2" height="2" fill="#C4C4C4"/>
<rect x="58" y="96" width="2" height="2" fill="#C4C4C4"/>
<rect x="60" y="98" width="2" height="2" fill="#C4C4C4"/>
<rect x="62" y="96" width="2" height="2" fill="#C4C4C4"/>
<rect x="64" y="98" width="2" height="2" fill="#C4C4C4"/>
<rect x="66" y="96" width="2" height="2" fill="#C4C4C4"/>
<rect x="68" y="98" width="2" height="2" fill="#C4C4C4"/>
<rect x="70" y="96" width="2" height="2" fill="#C4C4C4"/>
<rect x="24" y="98" width="2" height="2" fill="#C4C4C4"/>
<rect x="26" y="96" width="2" height="2" fill="#C4C4C4"/>
<rect x="28" y="98" width="2" height="2" fill="#C4C4C4"/>
<rect x="30" y="96" width="2" height="2" fill="#C4C4C4"/>
<rect x="32" y="98" width="2" height="2" fill="#C4C4C4"/>
<rect x="34" y="96" width="2" height="2" fill="#C4C4C4"/>
<rect x="36" y="98" width="2" height="2" fill="#C4C4C4"/>
<rect x="6" y="100" width="2" height="2" fill="#C4C4C4"/>
<rect x="8" y="102" width="2" height="2" fill="#C4C4C4"/>
<rect x="10" y="100" width="2" height="2" fill="#C4C4C4"/>
<rect x="12" y="102" width="2" height="2" fill="#C4C4C4"/>
<rect x="14" y="100" width="2" height="2" fill="#C4C4C4"/>
<rect x="16" y="102" width="2" height="2" fill="#C4C4C4"/>
<rect x="18" y="100" width="2" height="2" fill="#C4C4C4"/>
<rect x="20" y="102" width="2" height="2" fill="#C4C4C4"/>
<rect x="22" y="100" width="2" height="2" fill="#C4C4C4"/>
<rect x="38" y="100" width="2" height="2" fill="#C4C4C4"/>
<rect x="40" y="102" width="2" height="2" fill="#C4C4C4"/>
<rect x="42" y="100" width="2" height="2" fill="#C4C4C4"/>
<rect x="44" y="102" width="2" height="2" fill="#C4C4C4"/>
<rect x="46" y="100" width="2" height="2" fill="#C4C4C4"/>
<rect x="48" y="102" width="2" height="2" fill="#C4C4C4"/>
<rect x="50" y="100" width="2" height="2" fill="#C4C4C4"/>
<rect x="52" y="102" width="2" height="2" fill="#C4C4C4"/>
<rect x="54" y="100" width="2" height="2" fill="#C4C4C4"/>
<rect x="56" y="102" width="2" height="2" fill="#C4C4C4"/>
<rect x="58" y="100" width="2" height="2" fill="#C4C4C4"/>
<rect x="60" y="102" width="2" height="2" fill="#C4C4C4"/>
<rect x="62" y="100" width="2" height="2" fill="#C4C4C4"/>
<rect x="64" y="102" width="2" height="2" fill="#C4C4C4"/>
<rect x="66" y="100" width="2" height="2" fill="#C4C4C4"/>
<rect x="68" y="102" width="2" height="2" fill="#C4C4C4"/>
<rect x="70" y="100" width="2" height="2" fill="#C4C4C4"/>
<rect x="24" y="102" width="2" height="2" fill="#C4C4C4"/>
<rect x="26" y="100" width="2" height="2" fill="#C4C4C4"/>
<rect x="28" y="102" width="2" height="2" fill="#C4C4C4"/>
<rect x="30" y="100" width="2" height="2" fill="#C4C4C4"/>
<rect x="32" y="102" width="2" height="2" fill="#C4C4C4"/>
<rect x="34" y="100" width="2" height="2" fill="#C4C4C4"/>
<rect x="36" y="102" width="2" height="2" fill="#C4C4C4"/>
<rect x="6" y="104" width="2" height="2" fill="#C4C4C4"/>
<rect x="8" y="106" width="2" height="2" fill="#C4C4C4"/>
<rect x="10" y="104" width="2" height="2" fill="#C4C4C4"/>
<rect x="12" y="106" width="2" height="2" fill="#C4C4C4"/>
<rect x="14" y="104" width="2" height="2" fill="#C4C4C4"/>
<rect x="16" y="106" width="2" height="2" fill="#C4C4C4"/>
<rect x="18" y="104" width="2" height="2" fill="#C4C4C4"/>
<rect x="20" y="106" width="2" height="2" fill="#C4C4C4"/>
<rect x="22" y="104" width="2" height="2" fill="#C4C4C4"/>
<rect x="38" y="104" width="2" height="2" fill="#C4C4C4"/>
<rect x="40" y="106" width="2" height="2" fill="#C4C4C4"/>
<rect x="42" y="104" width="2" height="2" fill="#C4C4C4"/>
<rect x="44" y="106" width="2" height="2" fill="#C4C4C4"/>
<rect x="46" y="104" width="2" height="2" fill="#C4C4C4"/>
<rect x="48" y="106" width="2" height="2" fill="#C4C4C4"/>
<rect x="50" y="104" width="2" height="2" fill="#C4C4C4"/>
<rect x="52" y="106" width="2" height="2" fill="#C4C4C4"/>
<rect x="54" y="104" width="2" height="2" fill="#C4C4C4"/>
<rect x="56" y="106" width="2" height="2" fill="#C4C4C4"/>
<rect x="58" y="104" width="2" height="2" fill="#C4C4C4"/>
<rect x="60" y="106" width="2" height="2" fill="#C4C4C4"/>
<rect x="62" y="104" width="2" height="2" fill="#C4C4C4"/>
<rect x="64" y="106" width="2" height="2" fill="#C4C4C4"/>
<rect x="66" y="104" width="2" height="2" fill="#C4C4C4"/>
<rect x="68" y="106" width="2" height="2" fill="#C4C4C4"/>
<rect x="70" y="104" width="2" height="2" fill="#C4C4C4"/>
<rect x="24" y="106" width="2" height="2" fill="#C4C4C4"/>
<rect x="26" y="104" width="2" height="2" fill="#C4C4C4"/>
<rect x="28" y="106" width="2" height="2" fill="#C4C4C4"/>
<rect x="30" y="104" width="2" height="2" fill="#C4C4C4"/>
<rect x="32" y="106" width="2" height="2" fill="#C4C4C4"/>
<rect x="34" y="104" width="2" height="2" fill="#C4C4C4"/>
<rect x="36" y="106" width="2" height="2" fill="#C4C4C4"/>
<rect x="6" y="108" width="2" height="2" fill="#C4C4C4"/>
<rect x="8" y="110" width="2" height="2" fill="#C4C4C4"/>
<rect x="10" y="108" width="2" height="2" fill="#C4C4C4"/>
<rect x="12" y="110" width="2" height="2" fill="#C4C4C4"/>
<rect x="14" y="108" width="2" height="2" fill="#C4C4C4"/>
<rect x="16" y="110" width="2" height="2" fill="#C4C4C4"/>
<rect x="18" y="108" width="2" height="2" fill="#C4C4C4"/>
<rect x="20" y="110" width="2" height="2" fill="#C4C4C4"/>
<rect x="22" y="108" width="2" height="2" fill="#C4C4C4"/>
<rect x="38" y="108" width="2" height="2" fill="#C4C4C4"/>
<rect x="40" y="110" width="2" height="2" fill="#C4C4C4"/>
<rect x="42" y="108" width="2" height="2" fill="#C4C4C4"/>
<rect x="44" y="110" width="2" height="2" fill="#C4C4C4"/>
<rect x="46" y="108" width="2" height="2" fill="#C4C4C4"/>
<rect x="48" y="110" width="2" height="2" fill="#C4C4C4"/>
<rect x="50" y="108" width="2" height="2" fill="#C4C4C4"/>
<rect x="52" y="110" width="2" height="2" fill="#C4C4C4"/>
<rect x="54" y="108" width="2" height="2" fill="#C4C4C4"/>
<rect x="56" y="110" width="2" height="2" fill="#C4C4C4"/>
<rect x="58" y="108" width="2" height="2" fill="#C4C4C4"/>
<rect x="60" y="110" width="2" height="2" fill="#C4C4C4"/>
<rect x="62" y="108" width="2" height="2" fill="#C4C4C4"/>
<rect x="64" y="110" width="2" height="2" fill="#C4C4C4"/>
<rect x="66" y="108" width="2" height="2" fill="#C4C4C4"/>
<rect x="68" y="110" width="2" height="2" fill="#C4C4C4"/>
<rect x="70" y="108" width="2" height="2" fill="#C4C4C4"/>
<rect x="24" y="110" width="2" height="2" fill="#C4C4C4"/>
<rect x="26" y="108" width="2" height="2" fill="#C4C4C4"/>
<rect x="28" y="110" width="2" height="2" fill="#C4C4C4"/>
<rect x="30" y="108" width="2" height="2" fill="#C4C4C4"/>
<rect x="32" y="110" width="2" height="2" fill="#C4C4C4"/>
<rect x="34" y="108" width="2" height="2" fill="#C4C4C4"/>
<rect x="36" y="110" width="2" height="2" fill="#C4C4C4"/>
</svg>
