<svg width="65" height="191" viewBox="0 0 65 191" fill="none" xmlns="http://www.w3.org/2000/svg">
<mask id="mask0" mask-type="alpha" maskUnits="userSpaceOnUse" x="7" y="147" width="51" height="37">
<rect x="7" y="147" width="51" height="37" fill="#C4C4C4"/>
</mask>
<g mask="url(#mask0)">
<line x1="38.8511" y1="123.354" x2="-10.6464" y2="172.851" stroke="#515257"/>
<line x1="42.3866" y1="126.889" x2="-7.11084" y2="176.386" stroke="#515257"/>
<line x1="45.9222" y1="130.425" x2="-3.57531" y2="179.922" stroke="#515257"/>
<line x1="49.4577" y1="133.96" x2="-0.0397903" y2="183.457" stroke="#515257"/>
<line x1="52.9932" y1="137.496" x2="3.49573" y2="186.994" stroke="#515257"/>
<line x1="56.5288" y1="141.031" x2="7.03132" y2="190.529" stroke="#515257"/>
<line x1="60.0643" y1="144.566" x2="10.5668" y2="194.064" stroke="#515257"/>
<line x1="63.5998" y1="148.103" x2="14.1024" y2="197.6" stroke="#515257"/>
<line x1="67.1354" y1="151.638" x2="17.6379" y2="201.135" stroke="#515257"/>
<line x1="70.6709" y1="155.173" x2="21.1735" y2="204.67" stroke="#515257"/>
<line x1="74.2065" y1="158.709" x2="24.709" y2="208.206" stroke="#515257"/>
<line x1="77.742" y1="162.244" x2="28.2445" y2="211.742" stroke="#515257"/>
<line x1="81.2775" y1="165.78" x2="31.78" y2="215.278" stroke="#515257"/>
<line x1="84.813" y1="169.315" x2="35.3156" y2="218.813" stroke="#515257"/>
<line x1="88.3486" y1="172.851" x2="38.8511" y2="222.348" stroke="#515257"/>
</g>
<rect x="1" y="36" width="63" height="154" stroke="#515257" stroke-width="2"/>
<rect x="1" y="1" width="63" height="35" stroke="#515257" stroke-width="2"/>
<rect x="7" y="7" width="51" height="23" stroke="#515257" stroke-width="2"/>
<rect x="-1" y="1" width="51" height="99" transform="matrix(-1 0 0 1 57 41)" stroke="#515257" stroke-width="2"/>
<rect x="-1" y="1" width="51" height="37" transform="matrix(-1 0 0 1 57 146)" stroke="#515257" stroke-width="2"/>
<path d="M7 42L58 112.349L7 184" stroke="#30C2FF"/>
</svg>
