<svg width="67" height="135" viewBox="0 0 67 135" fill="none" xmlns="http://www.w3.org/2000/svg">
<path d="M1 134V34.6139L66 1.62885V134H1Z" stroke="#515257" stroke-width="2"/>
<path d="M8 127V38.6129L59 12.6317V127H8Z" stroke="#515257" stroke-width="2"/>
<path d="M59 13L8 69.4771L59 127" stroke="#30C2FF"/>
</svg>
