<svg width="125" height="135" viewBox="0 0 125 135" fill="none" xmlns="http://www.w3.org/2000/svg">
<path d="M124 134V63.6158L1 1.62383V134H124Z" stroke="#515257" stroke-width="2"/>
<path d="M59 127V38.6129L8 12.6317V127H59Z" stroke="#515257" stroke-width="2"/>
<path d="M8 13L59 69.4771L8 127" stroke="#30C2FF"/>
<path d="M117 127V67.6129L66 41.6317V127H117Z" stroke="#515257" stroke-width="2"/>
<line y1="-0.5" x2="17" y2="-0.5" transform="matrix(-0.707107 -0.707107 -0.707107 0.707107 96.6362 98.3848)" stroke="#30C2FF"/>
<line y1="-0.5" x2="17" y2="-0.5" transform="matrix(-0.707107 0.707107 0.707107 0.707107 97.3433 86.3633)" stroke="#30C2FF"/>
</svg>
