<svg width="183" height="133" viewBox="0 0 183 133" fill="none" xmlns="http://www.w3.org/2000/svg">
<path d="M182 132V61.7208L1 1.38742V132H182Z" stroke="#515257" stroke-width="2"/>
<path d="M117 125V46.5071L66 29.5951V125H117Z" stroke="#515257" stroke-width="2"/>
<path d="M59 125V27.2229L8 10.3833V125H59Z" stroke="#515257" stroke-width="2"/>
<path d="M175 125V65.7229L124 48.8833V125H175Z" stroke="#515257" stroke-width="2"/>
<line y1="-0.5" x2="17" y2="-0.5" transform="matrix(-0.707107 -0.707107 -0.707107 0.707107 156.021 96.3848)" stroke="#30C2FF"/>
<line y1="-0.5" x2="17" y2="-0.5" transform="matrix(-0.707107 0.707107 0.707107 0.707107 156.728 84.3633)" stroke="#30C2FF"/>
<line y1="-0.5" x2="17" y2="-0.5" transform="matrix(-0.707107 -0.707107 -0.707107 0.707107 97.6777 86.3848)" stroke="#30C2FF"/>
<line y1="-0.5" x2="17" y2="-0.5" transform="matrix(-0.707107 0.707107 0.707107 0.707107 98.385 74.3633)" stroke="#30C2FF"/>
<line y1="-0.5" x2="17" y2="-0.5" transform="matrix(-0.707107 -0.707107 -0.707107 0.707107 39.6775 74.3848)" stroke="#30C2FF"/>
<line y1="-0.5" x2="17" y2="-0.5" transform="matrix(-0.707107 0.707107 0.707107 0.707107 40.3848 62.3633)" stroke="#30C2FF"/>
</svg>
