<svg width="70" height="70" viewBox="0 0 70 70" fill="none" xmlns="http://www.w3.org/2000/svg">
<path d="M60 2H8C4.68629 2 2 4.68629 2 8C2 11.3137 4.68629 14 8 14H70V70H8C3.58172 70 0 66.4183 0 62V16H2V62C2 65.3137 4.68629 68 8 68H68V16H8C3.58172 16 0 12.4183 0 8C0 3.58172 3.58172 0 8 0H62V12H60V2Z" fill="#C1C1C1"/>
<path fill-rule="evenodd" clip-rule="evenodd" d="M27.5355 35.4645C27.145 35.0739 26.5118 35.0739 26.1213 35.4645L24 37.5858L21.8787 35.4645C21.4882 35.0739 20.855 35.0739 20.4645 35.4645C20.0739 35.855 20.0739 36.4881 20.4645 36.8787L22.5858 39L20.4645 41.1213C20.0739 41.5118 20.0739 42.145 20.4645 42.5355C20.855 42.9261 21.4882 42.9261 21.8787 42.5355L24 40.4142L26.1213 42.5355C26.5118 42.9261 27.145 42.9261 27.5355 42.5355C27.9261 42.145 27.9261 41.5118 27.5355 41.1213L25.4142 39L27.5355 36.8787C27.9261 36.4881 27.9261 35.855 27.5355 35.4645Z" fill="#C1C1C1"/>
<path fill-rule="evenodd" clip-rule="evenodd" d="M49.5355 35.4645C49.145 35.0739 48.5118 35.0739 48.1213 35.4645L46 37.5858L43.8787 35.4645C43.4882 35.0739 42.855 35.0739 42.4645 35.4645C42.0739 35.855 42.0739 36.4881 42.4645 36.8787L44.5858 39L42.4645 41.1213C42.0739 41.5118 42.0739 42.145 42.4645 42.5355C42.855 42.9261 43.4882 42.9261 43.8787 42.5355L46 40.4142L48.1213 42.5355C48.5118 42.9261 49.145 42.9261 49.5355 42.5355C49.9261 42.145 49.9261 41.5118 49.5355 41.1213L47.4142 39L49.5355 36.8787C49.9261 36.4881 49.9261 35.855 49.5355 35.4645Z" fill="#C1C1C1"/>
<path d="M24.2937 53.6888C23.8996 53.2769 23.8975 52.6062 24.3155 52.2208C25.6498 50.9908 27.1713 49.998 28.8195 49.2846C30.779 48.4365 32.8791 48 35 48C37.1209 48 39.221 48.4365 41.1805 49.2846C42.8287 49.998 44.3502 50.9908 45.6845 52.2208C46.1025 52.6062 46.1005 53.2769 45.7063 53.6888C45.3121 54.1007 44.6751 54.0975 44.2538 53.7161C43.1093 52.6798 41.811 51.841 40.4079 51.2337C38.6934 50.4916 36.8558 50.1097 35 50.1097C33.1442 50.1097 31.3066 50.4916 29.5921 51.2337C28.189 51.841 26.8907 52.6798 25.7462 53.7161C25.3249 54.0975 24.6879 54.1007 24.2937 53.6888Z" fill="#C1C1C1"/>
</svg>
