<svg width="48" height="24" viewBox="0 0 48 24" fill="none" xmlns="http://www.w3.org/2000/svg">
<rect width="48" height="24" fill="white"/>
<path d="M2.91531 10.6903H5.26209V9.27145H2.91531V8.59903C2.91531 7.80745 3.27951 7.40399 4.02287 7.40399C4.3875 7.40399 4.80983 7.49379 5.26209 7.67296V6.31365C4.76623 6.1047 4.21266 6 3.58557 6C2.12792 6 1.34096 6.92606 1.34096 8.3156V9.27145H0V10.6903H1.34096V16.6055H2.91531V10.6903ZM8.32316 16.6055V12.1092C8.65872 11.3474 9.54742 10.675 10.6699 10.675C10.8302 10.675 10.976 10.6899 11.1072 10.7048V9.09141C11.0636 9.07651 11.0196 9.07651 10.9615 9.07651C9.85349 9.07651 8.80406 9.68893 8.32316 10.5405V9.27101H6.74881V16.6055H8.32316ZM23.4387 16.6055V11.7658C23.7884 11.0938 24.5467 10.5856 25.2901 10.5856C26.2668 10.5856 26.7623 11.1832 26.7623 12.3931V16.6055H28.3366V11.8105C28.6427 11.1083 29.4151 10.5856 30.1734 10.5856C31.1498 10.5856 31.6311 11.1832 31.6311 12.3931V16.6055H33.2055V12.0194C33.2055 10.1073 32.2432 9.07695 30.6693 9.07695C29.5177 9.07695 28.5705 9.62979 28.0601 10.3916C27.754 9.61489 26.923 9.07695 25.8005 9.07695C24.7656 9.07695 23.9786 9.46508 23.4392 10.2273V9.27145H21.8648V16.6059H23.4392L23.4387 16.6055ZM34.7939 12.931C34.7939 14.0814 35.1726 15.0074 35.931 15.7246C36.7034 16.4417 37.6365 16.8 38.7441 16.8C39.8517 16.8 40.7263 16.5608 41.3824 16.0829V14.7236C40.6681 15.1568 39.9102 15.3807 39.0792 15.3807C37.6216 15.3807 36.5722 14.6487 36.3828 13.409H41.8633V12.9906C41.8633 11.6611 41.4115 10.4512 40.3471 9.67447C39.8222 9.27101 39.1955 9.07695 38.4667 9.07695C37.3737 9.07695 36.4991 9.45062 35.8138 10.1822C35.1286 10.9142 34.7935 11.8403 34.7935 12.9306L34.7939 12.931ZM36.3973 12.1841C36.4995 11.2283 37.2429 10.4363 38.3944 10.4363C38.9775 10.4363 39.4293 10.6154 39.7645 10.9742C40.1 11.3325 40.2603 11.736 40.2749 12.1841H36.3973ZM45.2159 16.6055V12.1092C45.5515 11.3474 46.4402 10.675 47.5627 10.675C47.723 10.675 47.8688 10.6899 48 10.7048V9.09141C47.9564 9.07651 47.9124 9.07651 47.8542 9.07651C46.7462 9.07651 45.6968 9.68893 45.2159 10.5405V9.27101H43.6416V16.6055H45.2159ZM15.4947 16.7996C16.6023 16.7996 17.4478 16.3961 18.0454 15.6045V16.6055H19.6198V9.27101H18.0454V10.2716C17.4478 9.47997 16.6023 9.07651 15.4947 9.07651C14.4889 9.07651 13.6579 9.45018 13.0022 10.1966C12.3465 10.9435 12.0254 11.8547 12.0254 12.9302C12.0254 14.0205 12.346 14.9317 13.0022 15.6786C13.6579 16.4255 14.4889 16.7987 15.4947 16.7987V16.7996ZM15.9175 15.3802C15.2618 15.3802 14.7078 15.1415 14.2705 14.678C13.8332 14.2001 13.6147 13.6175 13.6147 12.9302C13.6147 12.2582 13.8332 11.6755 14.2705 11.2121C14.7078 10.7341 15.2618 10.495 15.9175 10.495C16.8502 10.495 17.6522 11.0627 18.0454 11.7947V14.0652C17.6517 14.827 16.8502 15.3794 15.9175 15.3794V15.3802Z" fill="#515257"/>
<circle cx="17" cy="5" r="2" fill="#DA4052"/>
<circle cx="43" cy="5" r="2" fill="#FFA620"/>
<circle cx="15.5" cy="19.5" r="1.5" fill="#FFA620"/>
<circle cx="41" cy="20" r="1" fill="#22B56E"/>
<circle cx="32" cy="4" r="1" fill="#22B56E"/>
<circle cx="5" cy="21" r="1" fill="#22B56E"/>
<circle cx="5" cy="3" r="1" fill="#30C2FF"/>
<circle cx="28" cy="20" r="2" fill="#30C2FF"/>
</svg>
