<svg width="16" height="16" viewBox="0 0 16 16" fill="none" xmlns="http://www.w3.org/2000/svg">
<path d="M2.8125 9.89062C1.25919 9.89062 0 11.1498 0 12.7031C0 14.2564 1.25919 15.5156 2.8125 15.5156C4.36581 15.5156 5.625 14.2564 5.625 12.7031C5.625 11.1498 4.36581 9.89062 2.8125 9.89062ZM2.8125 14.1094C2.03706 14.1094 1.40625 13.4786 1.40625 12.7031C1.40625 11.9277 2.03706 11.2969 2.8125 11.2969C3.58794 11.2969 4.21875 11.9277 4.21875 12.7031C4.21875 13.4786 3.58794 14.1094 2.8125 14.1094Z" fill="#22B56E"/>
<path d="M13.1875 9.89062C11.6342 9.89062 10.375 11.1498 10.375 12.7031C10.375 14.2564 11.6342 15.5156 13.1875 15.5156C14.7408 15.5156 16 14.2564 16 12.7031C16 11.1498 14.7408 9.89062 13.1875 9.89062ZM13.1875 14.1094C12.4121 14.1094 11.7812 13.4786 11.7812 12.7031C11.7812 11.9277 12.4121 11.2969 13.1875 11.2969C13.9629 11.2969 14.5938 11.9277 14.5938 12.7031C14.5938 13.4786 13.9629 14.1094 13.1875 14.1094Z" fill="#22B56E"/>
<path d="M14.5938 6.14062H9.90625C9.70438 6.14062 9.52538 6.26972 9.46175 6.46106L9.25603 7.07812H5.88959L5.83328 6.95638C5.60394 6.46063 5.10316 6.14062 4.55703 6.14062H0.46875C0.209656 6.14062 0 6.35028 0 6.60938C0 7.67041 0.473969 8.64066 1.26559 9.29644C1.73859 9.08066 2.25962 8.95312 2.8125 8.95312C4.88022 8.95312 6.5625 10.6354 6.5625 12.7031H9.4375C9.4375 10.6354 11.1198 8.95312 13.1875 8.95312C13.9997 8.95312 14.7471 9.21919 15.3617 9.65975C15.7452 9.40838 16 8.97619 16 8.48438V7.54688C16 6.77144 15.3692 6.14062 14.5938 6.14062ZM8.63094 8.95312H6.75706L6.32334 8.01562H8.94347L8.63094 8.95312Z" fill="#22B56E"/>
<path d="M8.9573 6.06282V7.20013H13.0666C12.9079 6.02445 12.0182 5.08447 10.9079 4.97247L10.3023 3.67178C10.2436 3.54611 10.1242 3.4668 9.99335 3.4668H8.61195C8.42107 3.4668 8.2666 3.63267 8.2666 3.83766C8.2666 4.04264 8.42107 4.20852 8.61195 4.20852H9.77988L10.1252 4.95024H9.99335C9.42205 4.95024 8.9573 5.44932 8.9573 6.06282Z" fill="#22B56E"/>
<rect x="2.57178" y="4.18848" width="1.06667" height="2.93333" rx="0.533333" transform="rotate(-15 2.57178 4.18848)" fill="#22B56E"/>
</svg>
