<svg width="16" height="16" viewBox="0 0 16 16" fill="none" xmlns="http://www.w3.org/2000/svg">
<path d="M11.4425 10.5576L8 7.12264L4.5575 10.5576L3.5 9.50014L8 5.00014L12.5 9.50014L11.4425 10.5576Z" fill="#8B90A0"/>
</svg>
