<svg width="35" height="104" viewBox="0 0 35 104" fill="none" xmlns="http://www.w3.org/2000/svg">
<rect x="16" y="1" width="4" height="102" fill="white" stroke="black" stroke-width="2"/>
<rect x="1" y="1" width="4" height="102" fill="white" stroke="black" stroke-width="2"/>
<path d="M5 98H16V100.182V101.062L14.2003 103H6.79971L5 101.062V100.182V98Z" fill="#C4C4C4" stroke="black" stroke-width="2"/>
<rect x="30" y="1" width="4" height="102" fill="white" stroke="black" stroke-width="2"/>
<path d="M20 98H30V100.182V101.085L28.3582 103H21.6418L20 101.085V100.182V98Z" fill="#C4C4C4" stroke="black" stroke-width="2"/>
</svg>
