<svg width="138" height="135" viewBox="0 0 138 135" fill="none" xmlns="http://www.w3.org/2000/svg">
<rect x="69" y="1" width="68" height="133" stroke="#515257" stroke-width="2"/>
<rect x="74" y="6" width="58" height="123" stroke="#515257" stroke-width="2"/>
<rect x="1" y="1" width="68" height="133" stroke="#515257" stroke-width="2"/>
<rect x="6" y="6" width="58" height="123" stroke="#515257" stroke-width="2"/>
<rect x="95" y="67" width="18" height="1" fill="#30C2FF"/>
<path fill-rule="evenodd" clip-rule="evenodd" d="M98.841 63.5898L99.4145 64.4091L94.9997 67.4995L99.4145 70.5898L98.841 71.4091L93.2559 67.4995L98.841 63.5898Z" fill="#30C2FF"/>
<rect width="18" height="1" transform="matrix(-1 0 0 1 42 67)" fill="#30C2FF"/>
<path fill-rule="evenodd" clip-rule="evenodd" d="M38.159 63.5898L37.5855 64.4091L42.0003 67.4995L37.5855 70.5898L38.159 71.4091L43.7441 67.4995L38.159 63.5898Z" fill="#30C2FF"/>
</svg>
